<?xml version="1.0" encoding="utf-8"?>
<!-- Generator: Adobe Illustrator 23.0.6, SVG Export Plug-In . SVG Version: 6.00 Build 0)  -->
<svg version="1.1" id="Ebene_2" xmlns="http://www.w3.org/2000/svg" xmlns:xlink="http://www.w3.org/1999/xlink" x="0px" y="0px"
	 viewBox="0 0 604 600" style="enable-background:new 0 0 604 600;" xml:space="preserve">
<style type="text/css">
	.st0{fill-rule:evenodd;clip-rule:evenodd;fill:#DCDCFF;}
	.st1{fill:none;stroke:#000000;stroke-width:3;stroke-miterlimit:10;}
	.st2{fill-rule:evenodd;clip-rule:evenodd;}
	.st3{fill:#BEF000;stroke:#000000;stroke-width:3;stroke-miterlimit:10;}
	.st4{fill:#B3E5D8;stroke:#000000;stroke-width:3;stroke-miterlimit:10;}
	.st5{stroke:#000000;stroke-width:3;stroke-miterlimit:10;}
	.st6{fill-rule:evenodd;clip-rule:evenodd;fill:#FFFFFF;}
	.st7{opacity:0.9;}
	.st8{fill:#00DCFF;fill-opacity:0.7;}
	.st9{fill:#7676FF;}
	.st10{fill:#00B1FF;}
	.st11{fill:#5F5FFF;}
</style>
<path class="st0" d="M129.6,103.8C27.8,195.7,71.8,501.9,151,547.2c167.2,95.7,156.1-155.6,210.9-86.6
	c178.6,224.8,236-93.4,193.4-150.3c-42.6-56.8-143.8-4.7-120.4-140.1C455.3,52.6,242.1,2.3,129.6,103.8z"/>
<path class="st1" d="M416.4,267h11.2c13.8,0,25,11.6,25,26v174.3v26.6c0,14.4,11.2,26,25,26h24.9c13.8,0,25,11.6,25,26v4.2"/>
<circle class="st2" cx="35.6" cy="362" r="11.6"/>
<circle class="st2" cx="120.5" cy="51.8" r="11.6"/>
<circle class="st2" cx="527.4" cy="550.2" r="11.6"/>
<path class="st1" d="M191.8,489.8H60.6c-13.8,0-25-11.6-25-26V108.1c0-14.4,11.2-26,25-26h34.9c13.8,0,25-11.6,25-26v-4.2"/>
<g>
	<path class="st3" d="M333.7,489.7h-56.2c-6.6,0-12-5.4-12-12v-36.5c0-6.6,5.4-12,12-12h56.2c6.6,0,12,5.4,12,12v36.5
		C345.7,484.3,340.3,489.7,333.7,489.7z"/>
	<path class="st3" d="M409.4,504.7H201.8c-6.6,0-12-5.4-12-12v-5.9c0-6.6,5.4-12,12-12h207.5c6.6,0,12,5.4,12,12v5.9
		C421.4,499.3,416,504.7,409.4,504.7z"/>
	<path class="st3" d="M538.6,440.4h-466c-6.6,0-12-5.4-12-12V122.8c0-6.6,5.4-12,12-12h466c6.6,0,12,5.4,12,12v305.6
		C550.6,435,545.2,440.4,538.6,440.4z"/>
	<path class="st4" d="M515.1,416.7H96.1c-6.6,0-12-5.4-12-12V146.5c0-6.6,5.4-12,12-12h418.9c6.6,0,12,5.4,12,12v258.3
		C527.1,411.3,521.7,416.7,515.1,416.7z"/>
	<g>
		<path class="st5" d="M84.1,162.2v-13.3c0-7.9,6.5-14.5,14.5-14.5h414c7.9,0,14.5,6.5,14.5,14.5v13.3H84.1z"/>
		<g>
			<circle class="st6" cx="99.1" cy="149.1" r="4.7"/>
			<circle class="st6" cx="114" cy="149.1" r="4.7"/>
			<circle class="st6" cx="128.9" cy="149.1" r="4.7"/>
		</g>
	</g>
</g>
<g class="st7">
	<path class="st8" d="M378.4,223.8l2.3-0.9l5.6-1.4l36.9,71.7l-6.8,1.5l-8.5,4c0,0-3.9,7.2-3.9,7.6c0,0.4,0.7,2.3,0.7,2.3l-107,64.2
		l-11.4,5.7l-9.4-3.9l-6.5-11.2l-9.4,2.4l-8.7-5.1l-3.2-8.1l-8.7,2.1l-9.4-3.6l-4.7-11.3l-10.3-0.2l-9.3-7.3l-1.9-10.4l17.5-23.9
		l26.2-46.3l31.9-23.8c0,0,15.9-12.9,15.8-12.9c-0.2,0,21.4-1.8,21.4-1.8l22,3.6l23,11.8L378.4,223.8z"/>
	<path class="st9" d="M225.5,219.9c8.4,4.6,9.3,5,10.5,5.4c1.3,0.4,5.6,3.5,5.6,3.5l16.9-5.6l13.1-8.9c0,0,4.7-4,9.7-2.4
		c5,1.6,5,1.6,5,1.6l4.9,2.9l-30.7,26.9l-10.2,10.7l1.8,6l10.4,3.3l20.9-3.3l12.5-6l16,7.4l63.5,37.9l25.6,18l1.6,11.6l-6.2,6
		c0,0-10.5-0.4-11.1,0s-7.6-2.9-7.6-2.9v10l-5.6,7.8l-7.4,1.3l-10.5-3.6c0,0-0.5,9.1-1.1,9.6c-0.5,0.5-4.9,6.3-4.9,6.3
		s-10.5,1.3-11.1,1.5c-0.5,0.2-8.3-3.3-8.3-3.3s-0.2,10-0.7,10.7s-8.3,7.2-8.3,7.2l-10.9-1.9l-7.5-1.9l-3.9-4.6l5.3-12.3l2.4-10.5
		l-2.4-6.8l-14.4-3.2l-2-12.5c0,0-7.6-7.7-8.7-7.3c-1.1,0.4-9.1,1.7-9.1,1.7l-3.7-12.3l-8.1-4.7l-14.3,4l-6-9.1l-14.3,0.2
		l-12.2,17.2l-3.3-6.6l-1.6-10.5l-7.1-4.2l-3,0.8l-5.7-3.5L225.5,219.9z"/>
	<g id="J4FfPy.tif">
		<g>
			<path d="M454.5,279.1c-9.4,5.8-18.8,11.7-28.3,17.4c-3.1,1.9-4.2-0.7-5.2-2.8c-4.6-9.2-9.2-18.4-13.8-27.6
				c-7.7-15.5-15.3-31-23-46.4c-2.4-4.8-2.3-5.4,2.3-8.2c8.7-5.2,17.4-10.4,26.7-15.8c1.6,2.5,3.1,4.7,4.3,7.1
				c12.1,24.3,24.1,48.6,36.2,72.9c0.2,0.4,0.5,0.6,0.8,0.9C454.5,277.4,454.5,278.2,454.5,279.1z M387.9,216.3
				c12.5,25.2,24.8,50,37.3,75.2c8.2-4.9,15.9-9.5,23.8-14.3c-12.5-25.2-24.9-50.1-37.3-75.2c-1.7,0.9-2.8,1.5-4,2.2
				C401.3,208.2,394.9,212.1,387.9,216.3z"/>
			<path d="M380.7,222.9c0.6,1.3,1.2,2.3,1.7,3.4c-8,6.5-23.3,7.2-31.1,0.2c-11.1-10-24-11.1-37.9-11.5
				c-11.4-0.3-20.2,3.3-28.4,11.1c-9,8.5-18.9,15.9-28.2,24.1c-1.8,1.5-2.6,4.1-3.9,6.2c2.3,1.3,4.4,3.3,6.8,3.8
				c10.6,2.5,20.1-1.2,28.8-6.9c5.2-3.5,9.3-3.3,14.6-0.1c30.5,18.5,61.2,36.6,91.8,55c2.3,1.4,4.6,3,6.5,5c5,5.1,5.6,11.9,1.8,18.2
				c-3.3,5.5-9.8,8.1-16.4,6.4c-1.7-0.4-3.4-0.9-5.4-1.5c-0.9,6-2.5,11.5-7.9,14.7c-5.4,3.3-11,2.3-16.5,0.2
				c-6.2,16.7-6.7,17-25.1,15c-2.9,19.5-18.8,20.3-30.7,9.6c0.7-1.1,1.4-2.2,2.2-3.5c2.6,1.5,4.9,2.9,7.3,4.1
				c5.7,2.9,11.3,1.3,14.2-3.8c2.8-5,1.1-10.3-4-13.9c-2-1.4-3.6-3.1-5.5-4.7c0.3-0.6,0.6-1.1,0.9-1.7c1.7,0.4,3.6,0.4,5,1.1
				c4.6,2.5,9,5.3,13.5,7.9c5.7,3.2,11.7,1.9,14.7-3.2c2.9-4.8,1.3-10.7-4-14.2c-1.9-1.3-4.1-2.3-5.9-3.7c-1.5-1.2-2.7-2.8-4-4.2
				c0.2-0.5,0.5-1,0.7-1.4c1.8,0.4,3.7,0.5,5.3,1.4c6.2,3.5,12.2,7.4,18.5,10.7c7.1,3.7,14.1,0.5,15.5-6.9c1-5.2-2.2-8.5-6.1-11.1
				c-3.4-2.3-7.1-4.1-10.5-6.5c-1.6-1.1-2.6-3-3.9-4.6c0.3-0.5,0.7-1,1-1.5c1.6,0.6,3.4,0.9,4.9,1.8c8.1,4.7,15.9,9.7,24.2,14.1
				c2.4,1.3,6,1.7,8.5,0.8c7.4-2.7,9-9.8,3.8-15.8c-1.6-1.8-3.7-3.3-5.7-4.6c-30.2-18.2-60.5-36.3-90.7-54.5
				c-3.9-2.3-7.2-2.4-11,0.1c-9.8,6.4-20.4,9.4-32.1,7c-1.7-0.4-3.5-0.9-5-1.7c-7.2-3.7-7.9-9.8-1.7-15c13-11,26.1-21.9,39.1-32.8
				c3.6-3,7.7-4.6,12.4-4.6c8.8,0,17.6-0.4,26.3,0.1c4.2,0.3,8.4,2,12.4,3.6c2.6,1.1,4.9,3.1,7.2,4.7
				C360.7,227.8,367.1,228.6,380.7,222.9z"/>
			<path d="M247.1,355.9c-3.2,0.4-6.1,1.2-8.9,1c-6.7-0.5-11.6-4.9-13.3-11.6c-0.6-2.5-1.6-3.1-3.9-3c-1.6,0.1-3.3-0.1-4.9-0.4
				c-10.5-2.1-15.7-12.1-10.8-21.6c3.4-6.7,7.3-13.2,11.4-19.5c6-9,18.4-8.7,24.5,0.3c0.7,1,1.3,2,2.1,3.3c2.1-0.9,4.1-1.8,6.1-2.5
				c9.2-3.1,16.3,0.2,19,9.5c1.2,4.1,2.5,6,7.3,5.9c7.6-0.1,13.5,6.5,13.7,14.1c0,1.5,0,3,0,4.7c1.8,0.3,3.2,0.6,4.7,0.8
				c10.5,1.3,16.4,11.3,11.9,21c-2.4,5.2-5.3,10.3-8.5,15c-6.4,9.6-20.6,8.8-25.7-1.7c-1.8-3.6-3.4-4.2-7.1-3.5
				c-7.7,1.3-12.2-1.3-15.9-8C248.4,358.4,247.8,357.2,247.1,355.9z M229.3,340.8c-0.1,4.9,2.4,8.5,6,10.7c3.4,2.1,6.3,1.1,9-1.1
				c1.9-1.5,3.8-3.3,5-5.3c4.7-7.9,9.3-15.8,13.7-23.8c3.3-6,1.9-11.4-3.4-14.5c-5.5-3.1-10.6-1.7-14.1,4.4
				c-4.9,8.4-9.7,16.8-14.4,25.3C230.1,338.2,229.6,340,229.3,340.8z M273.6,320.8c-2.5,1.9-5.8,3.2-7.4,5.7
				c-4.7,7.2-8.9,14.8-12.9,22.4c-2.6,4.9-0.6,10.5,4.1,13.1c4.8,2.6,10.5,1.6,13.4-3.1c4.6-7.5,9-15.1,13-22.9
				C287.1,329.3,281.8,321.6,273.6,320.8z M227.9,299.5c-3.6-0.4-6.2,1.5-8,4.7c-3.2,5.7-6.5,11.4-9.6,17.2
				c-3.3,6.1-2,11.4,3.4,14.5c5.4,3.1,10.7,1.6,14.3-4.3c3.3-5.5,6.5-11.1,9.5-16.8C241.6,306.9,237.2,299.6,227.9,299.5z
				 M275.3,363.6c0,5.5,2.6,9,7.1,10.5c4.2,1.4,8.5,0.2,11.1-3.8c3-4.6,5.7-9.4,8.1-14.3c2.4-4.9,0.5-10.5-4-13.1
				c-4.8-2.7-10.2-1.7-13.3,3.1c-2.9,4.5-5.4,9.2-7.9,13.9C275.6,361.3,275.4,363,275.3,363.6z"/>
			<path d="M156.7,278.3c0.7-1.8,1.1-3,1.7-4.1c12.2-24.6,24.3-49.1,36.5-73.7c2.3-4.7,3.5-5,7.9-2.3c7.4,4.4,14.8,9,22.2,13.3
				c3.4,2,4.2,4,2.3,7.9c-12.3,24.3-24.3,48.8-36.5,73.2c-2.6,5.2-3.2,5.4-8,2.5c-7.4-4.4-14.9-8.8-22.3-13.3
				C159.1,281,158,279.6,156.7,278.3z M186.1,291.5c12.6-25.3,24.9-50.1,37.4-75.3c-8.1-4.9-15.8-9.4-23.9-14.2
				c-12.6,25.4-24.9,50.2-37.3,75.3C170.4,282.1,178,286.7,186.1,291.5z"/>
			<path d="M286.3,213.6c-2.7,1.2-4.4,2.1-6.2,2.8c-3.3,1.2-6.8,2-9.8,3.6c-3.5,1.8-6.6,4.5-9.9,6.6c-10.1,6.5-22.5,6.5-31.5-0.1
				c0.5-1,1-2.1,1.5-3c0.5-0.1,0.8-0.3,1-0.2c10.4,5.8,20.1,3.3,29.3-2.9c3.2-2.1,6.3-4.4,9.5-6.5C275,210.9,280,210.9,286.3,213.6z
				"/>
			<path d="M413.7,290c0.9,1.3,1.3,1.7,1.5,2.2c0.4,0.7,0.7,1.5,1.2,2.5c-5.6,3.2-10.3,7.2-11.7,14c-4-2.7-4.9-5.3-1.9-8.8
				C405.9,296.2,409.9,293.4,413.7,290z"/>
			<path d="M206.7,308.8c-1.6-7.1-6-11-11.7-13.9c0.6-1.4,1.2-2.6,1.7-3.8C206.5,293.5,211,300.9,206.7,308.8z"/>
			<path class="st10" d="M387.9,216.3c6.9-4.2,13.4-8.1,19.8-12c1.2-0.7,2.3-1.3,4-2.2c12.5,25.1,24.8,49.9,37.3,75.2
				c-8,4.8-15.7,9.4-23.8,14.3C412.8,266.3,400.5,241.5,387.9,216.3z"/>
			<path class="st8" d="M229.3,340.8c0.3-0.8,0.8-2.7,1.7-4.3c4.7-8.5,9.5-17,14.4-25.3c3.6-6.1,8.7-7.5,14.1-4.4
				c5.3,3,6.7,8.5,3.4,14.5c-4.4,8-9,16-13.7,23.8c-1.2,2-3.1,3.8-5,5.3c-2.7,2.2-5.6,3.2-9,1.1
				C231.7,349.3,229.3,345.7,229.3,340.8z"/>
			<path class="st8" d="M273.6,320.8c8.2,0.9,13.6,8.5,10.2,15.2c-3.9,7.8-8.4,15.4-13,22.9c-2.9,4.7-8.6,5.8-13.4,3.1
				c-4.7-2.6-6.7-8.2-4.1-13.1c4-7.6,8.2-15.2,12.9-22.4C267.8,324,271.1,322.7,273.6,320.8z"/>
			<path class="st8" d="M227.9,299.5c9.3,0.2,13.7,7.5,9.5,15.3c-3,5.7-6.2,11.3-9.5,16.8c-3.6,5.9-8.9,7.4-14.3,4.3
				c-5.4-3.1-6.7-8.5-3.4-14.5c3.1-5.8,6.4-11.5,9.6-17.2C221.7,300.9,224.4,299,227.9,299.5z"/>
			<path class="st8" d="M275.3,363.6c0.2-0.6,0.3-2.3,1-3.7c2.5-4.7,5-9.4,7.9-13.9c3.1-4.8,8.5-5.8,13.3-3.1
				c4.6,2.6,6.5,8.1,4,13.1c-2.4,4.9-5.1,9.7-8.1,14.3c-2.6,4-6.9,5.2-11.1,3.8C277.9,372.6,275.3,369.2,275.3,363.6z"/>
			<path class="st11" d="M186.1,291.5c-8.1-4.8-15.7-9.4-23.8-14.2c12.4-25.1,24.7-49.9,37.3-75.3c8,4.8,15.7,9.4,23.9,14.2
				C211,241.4,198.7,266.2,186.1,291.5z"/>
		</g>
	</g>
</g>
</svg>
