{
  "type": "cloud_vc",
  "product_offering": "<product_offering_id>",
  "managing_account": "<my_account_id>",
  "consuming_account": "<my_account_id>",
  "billing_account": "<my_account_id>",
  "cloud_key": "<azure_service_key>"
}
