[
  {
    "type": "route_server",
    "id": "string",
    "name": "string",
    "required": true,
    "nfc_required_contact_roles": [
      "role:noc", "role:implementation"
    ],
    "flags": [
      {
        "name": "RPKI-HARD-FILTER",
        "description": "RPKI reject invalid filtering is available",
        "mandatory": true
      }
    ],
    "network_service": "string",
    "asn": 0,
    "fqdn": "rs1.example.ix",
    "looking_glass_url": "https://lg.example.ix/rs1",
    "address_families": [
      "af_inet"
    ],
    "session_mode": "public",
    "available_bgp_session_types": [
      "passive"
    ],
    "ip_v4": "192.42.23.1",
    "ip_v6": "2001:23:42::1"
  }
]
