{
  "id": "<id>",
  "type": "exchange_lan",
  "state": "decommission_requested",
  "status": [],
  "current_billing_start_date": "2010-01-01",
  "decommission_at": "2019-08-24",
  "charged_until": "2019-08-31",
  ...
}
