{
  "id": "ffffffff-aaaa-1111-0000-000000000000",
  "type": "p2p_vc",
  "state": "requested",
  "status": [
    {
      "severity": 2,
      "tag": "a_side_nsc_required",
      "message": "Please configure the A-Side",
      "attrs": {},
      "timestamp": "2019-08-24T14:15:22Z"
    },
    {
      "severity": 2,
      "tag": "b_side_nsc_required",
      "message": "Please configure the B-Side",
      "attrs": {},
      "timestamp": "2019-08-24T14:15:22Z"
    }
  ],
  "nsc_required_contact_roles": ["<noc_role_id>"],
  "nsc_product_offerings": ["<nsc_product_offering_id>"],
  "joining_member_account": "<joining_account_id>",
  "product_offering": "<product_offering_id>",
  "managing_account": "<my_account_id>",
  "consuming_account": "<a_side_account_id>",
  "billing_account": "<my_account_id>",
}
